RECEIVED SYN:
source:		0x1388
dest:		0x1388
seq:		0x00000064
ack:		0x00000000
offset:		0x0006
reserved:	0x0000
flags:		0x0002
receive:	0x0000
checksum:	0xD085
pointer:	0x0000
options:	0x00000000

SENDING SYN-ACK:
source:		0x1388
dest:		0x1388
seq:		0x000000D2
ack:		0x00000065
offset:		0x0006
reserved:	0x0000
flags:		0x0012
receive:	0x0000
checksum:	0xBF2C
pointer:	0x0000
options:	0x00000000

RECEIVED ACK:
source:		0x1388
dest:		0x1388
seq:		0x00000065
ack:		0x000000D3
offset:		0x0006
reserved:	0x0000
flags:		0x0010
receive:	0x0000
checksum:	0xD884
pointer:	0x0000
options:	0x00000000

3-way handshake successful.

----------------------------

RECEIVED PAYLOAD PACKET:
source:		0x1388
dest:		0x1388
seq:		0x000000D3
ack:		0x000000E5
offset:		0x0006
reserved:	0x0000
flags:		0x0010
receive:	0x0000
checksum:	0xBEAC
pointer:	0x0000
options:	0x00000000

SENDING PAYLOAD ACK:
source:		0x1388
dest:		0x1388
seq:		0x00000153
ack:		0x000000D4
offset:		0x0006
reserved:	0x0000
flags:		0x0010
receive:	0x0000
checksum:	0xD815
pointer:	0x0000
options:	0x00000000

RECEIVED PAYLOAD PACKET:
source:		0x1388
dest:		0x1388
seq:		0x000000D4
ack:		0x000001D3
offset:		0x0006
reserved:	0x0000
flags:		0x0010
receive:	0x0000
checksum:	0xBE2C
pointer:	0x0000
options:	0x00000000

SENDING PAYLOAD ACK:
source:		0x1388
dest:		0x1388
seq:		0x00000154
ack:		0x000000D5
offset:		0x0006
reserved:	0x0000
flags:		0x0010
receive:	0x0000
checksum:	0xD893
pointer:	0x0000
options:	0x00000000

RECEIVED PAYLOAD PACKET:
source:		0x1388
dest:		0x1388
seq:		0x000000D5
ack:		0x000001D4
offset:		0x0006
reserved:	0x0000
flags:		0x0010
receive:	0x0000
checksum:	0xBDAC
pointer:	0x0000
options:	0x00000000

SENDING PAYLOAD ACK:
source:		0x1388
dest:		0x1388
seq:		0x00000155
ack:		0x000000D6
offset:		0x0006
reserved:	0x0000
flags:		0x0010
receive:	0x0000
checksum:	0xD911
pointer:	0x0000
options:	0x00000000

RECEIVED PAYLOAD PACKET:
source:		0x1388
dest:		0x1388
seq:		0x000000D6
ack:		0x000001D5
offset:		0x0006
reserved:	0x0000
flags:		0x0010
receive:	0x0000
checksum:	0xBD2C
pointer:	0x0000
options:	0x00000000

SENDING PAYLOAD ACK:
source:		0x1388
dest:		0x1388
seq:		0x00000156
ack:		0x000000D7
offset:		0x0006
reserved:	0x0000
flags:		0x0010
receive:	0x0000
checksum:	0xD98F
pointer:	0x0000
options:	0x00000000

RECEIVED PAYLOAD PACKET:
source:		0x1388
dest:		0x1388
seq:		0x000000D7
ack:		0x000001D6
offset:		0x0006
reserved:	0x0000
flags:		0x0010
receive:	0x0000
checksum:	0xBCAC
pointer:	0x0000
options:	0x00000000

SENDING PAYLOAD ACK:
source:		0x1388
dest:		0x1388
seq:		0x00000157
ack:		0x000000D8
offset:		0x0006
reserved:	0x0000
flags:		0x0010
receive:	0x0000
checksum:	0xDA0D
pointer:	0x0000
options:	0x00000000

RECEIVED PAYLOAD PACKET:
source:		0x1388
dest:		0x1388
seq:		0x000000D8
ack:		0x000001D7
offset:		0x0006
reserved:	0x0000
flags:		0x0010
receive:	0x0000
checksum:	0xBC2C
pointer:	0x0000
options:	0x00000000

SENDING PAYLOAD ACK:
source:		0x1388
dest:		0x1388
seq:		0x00000158
ack:		0x000000D9
offset:		0x0006
reserved:	0x0000
flags:		0x0010
receive:	0x0000
checksum:	0xDA8B
pointer:	0x0000
options:	0x00000000

RECEIVED PAYLOAD PACKET:
source:		0x1388
dest:		0x1388
seq:		0x000000D9
ack:		0x000001D8
offset:		0x0006
reserved:	0x0000
flags:		0x0010
receive:	0x0000
checksum:	0xBBAC
pointer:	0x0000
options:	0x00000000

SENDING PAYLOAD ACK:
source:		0x1388
dest:		0x1388
seq:		0x00000159
ack:		0x000000DA
offset:		0x0006
reserved:	0x0000
flags:		0x0010
receive:	0x0000
checksum:	0xDB09
pointer:	0x0000
options:	0x00000000

RECEIVED PAYLOAD PACKET:
source:		0x1388
dest:		0x1388
seq:		0x000000DA
ack:		0x000001D9
offset:		0x0006
reserved:	0x0000
flags:		0x0010
receive:	0x0000
checksum:	0xBB2C
pointer:	0x0000
options:	0x00000000

SENDING PAYLOAD ACK:
source:		0x1388
dest:		0x1388
seq:		0x0000015A
ack:		0x000000DB
offset:		0x0006
reserved:	0x0000
flags:		0x0010
receive:	0x0000
checksum:	0xDB87
pointer:	0x0000
options:	0x00000000

RECEIVED PAYLOAD PACKET:
source:		0x1388
dest:		0x1388
seq:		0x000000DB
ack:		0x000001DA
offset:		0x0006
reserved:	0x0000
flags:		0x0010
receive:	0x0000
checksum:	0xBAAC
pointer:	0x0000
options:	0x00000000

SENDING PAYLOAD ACK:
source:		0x1388
dest:		0x1388
seq:		0x0000015B
ack:		0x000000DC
offset:		0x0006
reserved:	0x0000
flags:		0x0010
receive:	0x0000
checksum:	0xDC05
pointer:	0x0000
options:	0x00000000

RECEIVED PAYLOAD PACKET:
source:		0x1388
dest:		0x1388
seq:		0x000000DC
ack:		0x000001DB
offset:		0x0006
reserved:	0x0000
flags:		0x0010
receive:	0x0000
checksum:	0xBA2C
pointer:	0x0000
options:	0x00000000

SENDING PAYLOAD ACK:
source:		0x1388
dest:		0x1388
seq:		0x0000015C
ack:		0x000000DD
offset:		0x0006
reserved:	0x0000
flags:		0x0010
receive:	0x0000
checksum:	0xDC83
pointer:	0x0000
options:	0x00000000

RECEIVED PAYLOAD PACKET:
source:		0x1388
dest:		0x1388
seq:		0x000000DD
ack:		0x000001DC
offset:		0x0006
reserved:	0x0000
flags:		0x0010
receive:	0x0000
checksum:	0xB9AC
pointer:	0x0000
options:	0x00000000

SENDING PAYLOAD ACK:
source:		0x1388
dest:		0x1388
seq:		0x0000015D
ack:		0x000000DE
offset:		0x0006
reserved:	0x0000
flags:		0x0010
receive:	0x0000
checksum:	0xDD01
pointer:	0x0000
options:	0x00000000

RECEIVED PAYLOAD PACKET:
source:		0x1388
dest:		0x1388
seq:		0x000000DE
ack:		0x000001DD
offset:		0x0006
reserved:	0x0000
flags:		0x0010
receive:	0x0000
checksum:	0xB92C
pointer:	0x0000
options:	0x00000000

SENDING PAYLOAD ACK:
source:		0x1388
dest:		0x1388
seq:		0x0000015E
ack:		0x000000DF
offset:		0x0006
reserved:	0x0000
flags:		0x0010
receive:	0x0000
checksum:	0xDD7F
pointer:	0x0000
options:	0x00000000

RECEIVED PAYLOAD PACKET:
source:		0x1388
dest:		0x1388
seq:		0x000000DF
ack:		0x000001DE
offset:		0x0006
reserved:	0x0000
flags:		0x0010
receive:	0x0000
checksum:	0xB8AC
pointer:	0x0000
options:	0x00000000

SENDING PAYLOAD ACK:
source:		0x1388
dest:		0x1388
seq:		0x0000015F
ack:		0x000000E0
offset:		0x0006
reserved:	0x0000
flags:		0x0010
receive:	0x0000
checksum:	0xDDFD
pointer:	0x0000
options:	0x00000000

RECEIVED PAYLOAD PACKET:
source:		0x1388
dest:		0x1388
seq:		0x000000E0
ack:		0x000001DF
offset:		0x0006
reserved:	0x0000
flags:		0x0010
receive:	0x0000
checksum:	0xB82C
pointer:	0x0000
options:	0x00000000

SENDING PAYLOAD ACK:
source:		0x1388
dest:		0x1388
seq:		0x00000160
ack:		0x000000E1
offset:		0x0006
reserved:	0x0000
flags:		0x0010
receive:	0x0000
checksum:	0xDE7B
pointer:	0x0000
options:	0x00000000

RECEIVED PAYLOAD PACKET:
source:		0x1388
dest:		0x1388
seq:		0x000000E1
ack:		0x000001E0
offset:		0x0006
reserved:	0x0000
flags:		0x0010
receive:	0x0000
checksum:	0xB7AC
pointer:	0x0000
options:	0x00000000

SENDING PAYLOAD ACK:
source:		0x1388
dest:		0x1388
seq:		0x00000161
ack:		0x000000E2
offset:		0x0006
reserved:	0x0000
flags:		0x0010
receive:	0x0000
checksum:	0xDEF9
pointer:	0x0000
options:	0x00000000

RECEIVED PAYLOAD PACKET:
source:		0x1388
dest:		0x1388
seq:		0x000000E2
ack:		0x000001E1
offset:		0x0006
reserved:	0x0000
flags:		0x0010
receive:	0x0000
checksum:	0xB72C
pointer:	0x0000
options:	0x00000000

SENDING PAYLOAD ACK:
source:		0x1388
dest:		0x1388
seq:		0x00000162
ack:		0x000000E3
offset:		0x0006
reserved:	0x0000
flags:		0x0010
receive:	0x0000
checksum:	0xDF77
pointer:	0x0000
options:	0x00000000

RECEIVED PAYLOAD PACKET:
source:		0x1388
dest:		0x1388
seq:		0x000000E3
ack:		0x000001E2
offset:		0x0006
reserved:	0x0000
flags:		0x0010
receive:	0x0000
checksum:	0xB6AC
pointer:	0x0000
options:	0x00000000

SENDING PAYLOAD ACK:
source:		0x1388
dest:		0x1388
seq:		0x00000163
ack:		0x000000E4
offset:		0x0006
reserved:	0x0000
flags:		0x0010
receive:	0x0000
checksum:	0xDFF5
pointer:	0x0000
options:	0x00000000

RECEIVED PAYLOAD PACKET:
source:		0x1388
dest:		0x1388
seq:		0x000000E4
ack:		0x000001E3
offset:		0x0006
reserved:	0x0000
flags:		0x0010
receive:	0x0000
checksum:	0xB62C
pointer:	0x0000
options:	0x00000000

SENDING PAYLOAD ACK:
source:		0x1388
dest:		0x1388
seq:		0x00000164
ack:		0x000000E5
offset:		0x0006
reserved:	0x0000
flags:		0x0010
receive:	0x0000
checksum:	0xE073
pointer:	0x0000
options:	0x00000000

RECEIVED PAYLOAD PACKET:
source:		0x1388
dest:		0x1388
seq:		0x000000E5
ack:		0x000001E4
offset:		0x0006
reserved:	0x0000
flags:		0x0010
receive:	0x0000
checksum:	0xB5AC
pointer:	0x0000
options:	0x00000000

SENDING PAYLOAD ACK:
source:		0x1388
dest:		0x1388
seq:		0x00000165
ack:		0x000000E6
offset:		0x0006
reserved:	0x0000
flags:		0x0010
receive:	0x0000
checksum:	0xE0F1
pointer:	0x0000
options:	0x00000000

RECEIVED PAYLOAD PACKET:
source:		0x1388
dest:		0x1388
seq:		0x000000E6
ack:		0x000001E5
offset:		0x0006
reserved:	0x0000
flags:		0x0010
receive:	0x0000
checksum:	0xB52C
pointer:	0x0000
options:	0x00000000

SENDING PAYLOAD ACK:
source:		0x1388
dest:		0x1388
seq:		0x00000166
ack:		0x000000E7
offset:		0x0006
reserved:	0x0000
flags:		0x0010
receive:	0x0000
checksum:	0xE16F
pointer:	0x0000
options:	0x00000000

RECEIVED PAYLOAD PACKET:
source:		0x1388
dest:		0x1388
seq:		0x000000E7
ack:		0x000001E6
offset:		0x0006
reserved:	0x0000
flags:		0x0010
receive:	0x0000
checksum:	0xB4AC
pointer:	0x0000
options:	0x00000000

SENDING PAYLOAD ACK:
source:		0x1388
dest:		0x1388
seq:		0x00000167
ack:		0x000000E8
offset:		0x0006
reserved:	0x0000
flags:		0x0010
receive:	0x0000
checksum:	0xE1ED
pointer:	0x0000
options:	0x00000000

RECEIVED PAYLOAD PACKET:
source:		0x1388
dest:		0x1388
seq:		0x000000E8
ack:		0x000001E7
offset:		0x0006
reserved:	0x0000
flags:		0x0010
receive:	0x0000
checksum:	0xB42C
pointer:	0x0000
options:	0x00000000

SENDING PAYLOAD ACK:
source:		0x1388
dest:		0x1388
seq:		0x00000168
ack:		0x000000E9
offset:		0x0006
reserved:	0x0000
flags:		0x0010
receive:	0x0000
checksum:	0xE26B
pointer:	0x0000
options:	0x00000000

RECEIVED PAYLOAD PACKET:
source:		0x1388
dest:		0x1388
seq:		0x000000E9
ack:		0x000001E8
offset:		0x0006
reserved:	0x0000
flags:		0x0010
receive:	0x0000
checksum:	0xB3AC
pointer:	0x0000
options:	0x00000000

SENDING PAYLOAD ACK:
source:		0x1388
dest:		0x1388
seq:		0x00000169
ack:		0x000000EA
offset:		0x0006
reserved:	0x0000
flags:		0x0010
receive:	0x0000
checksum:	0xE2E9
pointer:	0x0000
options:	0x00000000

RECEIVED PAYLOAD PACKET:
source:		0x1388
dest:		0x1388
seq:		0x000000EA
ack:		0x000001E9
offset:		0x0006
reserved:	0x0000
flags:		0x0010
receive:	0x0000
checksum:	0xB32C
pointer:	0x0000
options:	0x00000000

SENDING PAYLOAD ACK:
source:		0x1388
dest:		0x1388
seq:		0x0000016A
ack:		0x000000EB
offset:		0x0006
reserved:	0x0000
flags:		0x0010
receive:	0x0000
checksum:	0xE367
pointer:	0x0000
options:	0x00000000

RECEIVED PAYLOAD PACKET:
source:		0x1388
dest:		0x1388
seq:		0x000000EB
ack:		0x000001EA
offset:		0x0006
reserved:	0x0000
flags:		0x0010
receive:	0x0000
checksum:	0xB2AC
pointer:	0x0000
options:	0x00000000

SENDING PAYLOAD ACK:
source:		0x1388
dest:		0x1388
seq:		0x0000016B
ack:		0x000000EC
offset:		0x0006
reserved:	0x0000
flags:		0x0010
receive:	0x0000
checksum:	0xE3E5
pointer:	0x0000
options:	0x00000000

RECEIVED PAYLOAD PACKET:
source:		0x1388
dest:		0x1388
seq:		0x000000EC
ack:		0x000001EB
offset:		0x0006
reserved:	0x0000
flags:		0x0010
receive:	0x0000
checksum:	0xB22C
pointer:	0x0000
options:	0x00000000

SENDING PAYLOAD ACK:
source:		0x1388
dest:		0x1388
seq:		0x0000016C
ack:		0x000000ED
offset:		0x0006
reserved:	0x0000
flags:		0x0010
receive:	0x0000
checksum:	0xE463
pointer:	0x0000
options:	0x00000000

RECEIVED PAYLOAD PACKET:
source:		0x1388
dest:		0x1388
seq:		0x000000ED
ack:		0x000001EC
offset:		0x0006
reserved:	0x0000
flags:		0x0010
receive:	0x0000
checksum:	0xB1AC
pointer:	0x0000
options:	0x00000000

SENDING PAYLOAD ACK:
source:		0x1388
dest:		0x1388
seq:		0x0000016D
ack:		0x000000EE
offset:		0x0006
reserved:	0x0000
flags:		0x0010
receive:	0x0000
checksum:	0xE4E1
pointer:	0x0000
options:	0x00000000

RECEIVED PAYLOAD PACKET:
source:		0x1388
dest:		0x1388
seq:		0x000000EE
ack:		0x000001ED
offset:		0x0006
reserved:	0x0000
flags:		0x0010
receive:	0x0000
checksum:	0xB12C
pointer:	0x0000
options:	0x00000000

SENDING PAYLOAD ACK:
source:		0x1388
dest:		0x1388
seq:		0x0000016E
ack:		0x000000EF
offset:		0x0006
reserved:	0x0000
flags:		0x0010
receive:	0x0000
checksum:	0xE55F
pointer:	0x0000
options:	0x00000000

RECEIVED PAYLOAD PACKET:
source:		0x1388
dest:		0x1388
seq:		0x000000EF
ack:		0x000001EE
offset:		0x0006
reserved:	0x0000
flags:		0x0010
receive:	0x0000
checksum:	0xB0AC
pointer:	0x0000
options:	0x00000000

SENDING PAYLOAD ACK:
source:		0x1388
dest:		0x1388
seq:		0x0000016F
ack:		0x000000F0
offset:		0x0006
reserved:	0x0000
flags:		0x0010
receive:	0x0000
checksum:	0xE5DD
pointer:	0x0000
options:	0x00000000

RECEIVED PAYLOAD PACKET:
source:		0x1388
dest:		0x1388
seq:		0x000000F0
ack:		0x000001EF
offset:		0x0006
reserved:	0x0000
flags:		0x0010
receive:	0x0000
checksum:	0xB02C
pointer:	0x0000
options:	0x00000000

SENDING PAYLOAD ACK:
source:		0x1388
dest:		0x1388
seq:		0x00000170
ack:		0x000000F1
offset:		0x0006
reserved:	0x0000
flags:		0x0010
receive:	0x0000
checksum:	0xE65B
pointer:	0x0000
options:	0x00000000

RECEIVED PAYLOAD PACKET:
source:		0x1388
dest:		0x1388
seq:		0x000000F1
ack:		0x000001F0
offset:		0x0006
reserved:	0x0000
flags:		0x0010
receive:	0x0000
checksum:	0xAFAC
pointer:	0x0000
options:	0x00000000

SENDING PAYLOAD ACK:
source:		0x1388
dest:		0x1388
seq:		0x00000171
ack:		0x000000F2
offset:		0x0006
reserved:	0x0000
flags:		0x0010
receive:	0x0000
checksum:	0xE6D9
pointer:	0x0000
options:	0x00000000

RECEIVED PAYLOAD PACKET:
source:		0x1388
dest:		0x1388
seq:		0x000000F2
ack:		0x000001F1
offset:		0x0006
reserved:	0x0000
flags:		0x0010
receive:	0x0000
checksum:	0xAF2C
pointer:	0x0000
options:	0x00000000

SENDING PAYLOAD ACK:
source:		0x1388
dest:		0x1388
seq:		0x00000172
ack:		0x000000F3
offset:		0x0006
reserved:	0x0000
flags:		0x0010
receive:	0x0000
checksum:	0xE757
pointer:	0x0000
options:	0x00000000

RECEIVED PAYLOAD PACKET:
source:		0x1388
dest:		0x1388
seq:		0x000000F3
ack:		0x000001F2
offset:		0x0006
reserved:	0x0000
flags:		0x0010
receive:	0x0000
checksum:	0xAEAC
pointer:	0x0000
options:	0x00000000

SENDING PAYLOAD ACK:
source:		0x1388
dest:		0x1388
seq:		0x00000173
ack:		0x000000F4
offset:		0x0006
reserved:	0x0000
flags:		0x0010
receive:	0x0000
checksum:	0xE7D5
pointer:	0x0000
options:	0x00000000

RECEIVED PAYLOAD PACKET:
source:		0x1388
dest:		0x1388
seq:		0x000000F4
ack:		0x000001F3
offset:		0x0006
reserved:	0x0000
flags:		0x0010
receive:	0x0000
checksum:	0xAE2C
pointer:	0x0000
options:	0x00000000

SENDING PAYLOAD ACK:
source:		0x1388
dest:		0x1388
seq:		0x00000174
ack:		0x000000F5
offset:		0x0006
reserved:	0x0000
flags:		0x0010
receive:	0x0000
checksum:	0xE853
pointer:	0x0000
options:	0x00000000

RECEIVED PAYLOAD PACKET:
source:		0x1388
dest:		0x1388
seq:		0x000000F5
ack:		0x000001F4
offset:		0x0006
reserved:	0x0000
flags:		0x0010
receive:	0x0000
checksum:	0xADAC
pointer:	0x0000
options:	0x00000000

SENDING PAYLOAD ACK:
source:		0x1388
dest:		0x1388
seq:		0x00000175
ack:		0x000000F6
offset:		0x0006
reserved:	0x0000
flags:		0x0010
receive:	0x0000
checksum:	0xE8D1
pointer:	0x0000
options:	0x00000000

RECEIVED PAYLOAD PACKET:
source:		0x1388
dest:		0x1388
seq:		0x000000F6
ack:		0x000001F5
offset:		0x0006
reserved:	0x0000
flags:		0x0010
receive:	0x0000
checksum:	0xAD2C
pointer:	0x0000
options:	0x00000000

SENDING PAYLOAD ACK:
source:		0x1388
dest:		0x1388
seq:		0x00000176
ack:		0x000000F7
offset:		0x0006
reserved:	0x0000
flags:		0x0010
receive:	0x0000
checksum:	0xE94F
pointer:	0x0000
options:	0x00000000

RECEIVED PAYLOAD PACKET:
source:		0x1388
dest:		0x1388
seq:		0x000000F7
ack:		0x000001F6
offset:		0x0006
reserved:	0x0000
flags:		0x0010
receive:	0x0000
checksum:	0xACAC
pointer:	0x0000
options:	0x00000000

SENDING PAYLOAD ACK:
source:		0x1388
dest:		0x1388
seq:		0x00000177
ack:		0x000000F8
offset:		0x0006
reserved:	0x0000
flags:		0x0010
receive:	0x0000
checksum:	0xE9CD
pointer:	0x0000
options:	0x00000000

RECEIVED PAYLOAD PACKET:
source:		0x1388
dest:		0x1388
seq:		0x000000F8
ack:		0x000001F7
offset:		0x0006
reserved:	0x0000
flags:		0x0010
receive:	0x0000
checksum:	0xAC2C
pointer:	0x0000
options:	0x00000000

SENDING PAYLOAD ACK:
source:		0x1388
dest:		0x1388
seq:		0x00000178
ack:		0x000000F9
offset:		0x0006
reserved:	0x0000
flags:		0x0010
receive:	0x0000
checksum:	0xEA4B
pointer:	0x0000
options:	0x00000000

RECEIVED PAYLOAD PACKET:
source:		0x1388
dest:		0x1388
seq:		0x000000F9
ack:		0x000001F8
offset:		0x0006
reserved:	0x0000
flags:		0x0010
receive:	0x0000
checksum:	0xABAC
pointer:	0x0000
options:	0x00000000

SENDING PAYLOAD ACK:
source:		0x1388
dest:		0x1388
seq:		0x00000179
ack:		0x000000FA
offset:		0x0006
reserved:	0x0000
flags:		0x0010
receive:	0x0000
checksum:	0xEAC9
pointer:	0x0000
options:	0x00000000

RECEIVED PAYLOAD PACKET:
source:		0x1388
dest:		0x1388
seq:		0x000000FA
ack:		0x000001F9
offset:		0x0006
reserved:	0x0000
flags:		0x0010
receive:	0x0000
checksum:	0xAB2C
pointer:	0x0000
options:	0x00000000

SENDING PAYLOAD ACK:
source:		0x1388
dest:		0x1388
seq:		0x0000017A
ack:		0x000000FB
offset:		0x0006
reserved:	0x0000
flags:		0x0010
receive:	0x0000
checksum:	0xEB47
pointer:	0x0000
options:	0x00000000

RECEIVED PAYLOAD PACKET:
source:		0x1388
dest:		0x1388
seq:		0x000000FB
ack:		0x000001FA
offset:		0x0006
reserved:	0x0000
flags:		0x0010
receive:	0x0000
checksum:	0xAAAC
pointer:	0x0000
options:	0x00000000

SENDING PAYLOAD ACK:
source:		0x1388
dest:		0x1388
seq:		0x0000017B
ack:		0x000000FC
offset:		0x0006
reserved:	0x0000
flags:		0x0010
receive:	0x0000
checksum:	0xEBC5
pointer:	0x0000
options:	0x00000000

RECEIVED PAYLOAD PACKET:
source:		0x1388
dest:		0x1388
seq:		0x000000FC
ack:		0x000001FB
offset:		0x0006
reserved:	0x0000
flags:		0x0010
receive:	0x0000
checksum:	0xAA2C
pointer:	0x0000
options:	0x00000000

SENDING PAYLOAD ACK:
source:		0x1388
dest:		0x1388
seq:		0x0000017C
ack:		0x000000FD
offset:		0x0006
reserved:	0x0000
flags:		0x0010
receive:	0x0000
checksum:	0xEC43
pointer:	0x0000
options:	0x00000000

RECEIVED PAYLOAD PACKET:
source:		0x1388
dest:		0x1388
seq:		0x000000FD
ack:		0x000001FC
offset:		0x0006
reserved:	0x0000
flags:		0x0010
receive:	0x0000
checksum:	0xA9AC
pointer:	0x0000
options:	0x00000000

SENDING PAYLOAD ACK:
source:		0x1388
dest:		0x1388
seq:		0x0000017D
ack:		0x000000FE
offset:		0x0006
reserved:	0x0000
flags:		0x0010
receive:	0x0000
checksum:	0xECC1
pointer:	0x0000
options:	0x00000000

RECEIVED PAYLOAD PACKET:
source:		0x1388
dest:		0x1388
seq:		0x000000FE
ack:		0x000001FD
offset:		0x0006
reserved:	0x0000
flags:		0x0010
receive:	0x0000
checksum:	0xA92C
pointer:	0x0000
options:	0x00000000

SENDING PAYLOAD ACK:
source:		0x1388
dest:		0x1388
seq:		0x0000017E
ack:		0x000000FF
offset:		0x0006
reserved:	0x0000
flags:		0x0010
receive:	0x0000
checksum:	0xED3F
pointer:	0x0000
options:	0x00000000

RECEIVED PAYLOAD PACKET:
source:		0x1388
dest:		0x1388
seq:		0x000000FF
ack:		0x000001FE
offset:		0x0006
reserved:	0x0000
flags:		0x0010
receive:	0x0000
checksum:	0xA8AC
pointer:	0x0000
options:	0x00000000

SENDING PAYLOAD ACK:
source:		0x1388
dest:		0x1388
seq:		0x0000017F
ack:		0x00000100
offset:		0x0006
reserved:	0x0000
flags:		0x0010
receive:	0x0000
checksum:	0xEDBD
pointer:	0x0000
options:	0x00000000

RECEIVED PAYLOAD PACKET:
source:		0x1388
dest:		0x1388
seq:		0x00000100
ack:		0x000001FF
offset:		0x0006
reserved:	0x0000
flags:		0x0010
receive:	0x0000
checksum:	0xA82C
pointer:	0x0000
options:	0x00000000

SENDING PAYLOAD ACK:
source:		0x1388
dest:		0x1388
seq:		0x00000180
ack:		0x00000101
offset:		0x0006
reserved:	0x0000
flags:		0x0010
receive:	0x0000
checksum:	0xEE3B
pointer:	0x0000
options:	0x00000000

RECEIVED PAYLOAD PACKET:
source:		0x1388
dest:		0x1388
seq:		0x00000101
ack:		0x00000200
offset:		0x0006
reserved:	0x0000
flags:		0x0010
receive:	0x0000
checksum:	0xA7AC
pointer:	0x0000
options:	0x00000000

SENDING PAYLOAD ACK:
source:		0x1388
dest:		0x1388
seq:		0x00000181
ack:		0x00000102
offset:		0x0006
reserved:	0x0000
flags:		0x0010
receive:	0x0000
checksum:	0xEEB9
pointer:	0x0000
options:	0x00000000

RECEIVED PAYLOAD PACKET:
source:		0x1388
dest:		0x1388
seq:		0x00000102
ack:		0x00000201
offset:		0x0006
reserved:	0x0000
flags:		0x0010
receive:	0x0000
checksum:	0xA72C
pointer:	0x0000
options:	0x00000000

SENDING PAYLOAD ACK:
source:		0x1388
dest:		0x1388
seq:		0x00000182
ack:		0x00000103
offset:		0x0006
reserved:	0x0000
flags:		0x0010
receive:	0x0000
checksum:	0xEF37
pointer:	0x0000
options:	0x00000000

RECEIVED PAYLOAD PACKET:
source:		0x1388
dest:		0x1388
seq:		0x00000103
ack:		0x00000202
offset:		0x0006
reserved:	0x0000
flags:		0x0010
receive:	0x0000
checksum:	0xA6AC
pointer:	0x0000
options:	0x00000000

SENDING PAYLOAD ACK:
source:		0x1388
dest:		0x1388
seq:		0x00000183
ack:		0x00000104
offset:		0x0006
reserved:	0x0000
flags:		0x0010
receive:	0x0000
checksum:	0xEFB5
pointer:	0x0000
options:	0x00000000

RECEIVED PAYLOAD PACKET:
source:		0x1388
dest:		0x1388
seq:		0x00000104
ack:		0x00000203
offset:		0x0006
reserved:	0x0000
flags:		0x0010
receive:	0x0000
checksum:	0xA62C
pointer:	0x0000
options:	0x00000000

SENDING PAYLOAD ACK:
source:		0x1388
dest:		0x1388
seq:		0x00000184
ack:		0x00000105
offset:		0x0006
reserved:	0x0000
flags:		0x0010
receive:	0x0000
checksum:	0xF033
pointer:	0x0000
options:	0x00000000

RECEIVED PAYLOAD PACKET:
source:		0x1388
dest:		0x1388
seq:		0x00000105
ack:		0x00000204
offset:		0x0006
reserved:	0x0000
flags:		0x0010
receive:	0x0000
checksum:	0xA5AC
pointer:	0x0000
options:	0x00000000

SENDING PAYLOAD ACK:
source:		0x1388
dest:		0x1388
seq:		0x00000185
ack:		0x00000106
offset:		0x0006
reserved:	0x0000
flags:		0x0010
receive:	0x0000
checksum:	0xF0B1
pointer:	0x0000
options:	0x00000000

RECEIVED PAYLOAD PACKET:
source:		0x1388
dest:		0x1388
seq:		0x00000106
ack:		0x00000205
offset:		0x0006
reserved:	0x0000
flags:		0x0010
receive:	0x0000
checksum:	0xA52C
pointer:	0x0000
options:	0x00000000

SENDING PAYLOAD ACK:
source:		0x1388
dest:		0x1388
seq:		0x00000186
ack:		0x00000107
offset:		0x0006
reserved:	0x0000
flags:		0x0010
receive:	0x0000
checksum:	0xF12F
pointer:	0x0000
options:	0x00000000

RECEIVED PAYLOAD PACKET:
source:		0x1388
dest:		0x1388
seq:		0x00000107
ack:		0x00000206
offset:		0x0006
reserved:	0x0000
flags:		0x0010
receive:	0x0000
checksum:	0xA4AC
pointer:	0x0000
options:	0x00000000

SENDING PAYLOAD ACK:
source:		0x1388
dest:		0x1388
seq:		0x00000187
ack:		0x00000108
offset:		0x0006
reserved:	0x0000
flags:		0x0010
receive:	0x0000
checksum:	0xF1AD
pointer:	0x0000
options:	0x00000000

RECEIVED PAYLOAD PACKET:
source:		0x1388
dest:		0x1388
seq:		0x00000108
ack:		0x00000207
offset:		0x0006
reserved:	0x0000
flags:		0x0010
receive:	0x0000
checksum:	0xA42C
pointer:	0x0000
options:	0x00000000

SENDING PAYLOAD ACK:
source:		0x1388
dest:		0x1388
seq:		0x00000188
ack:		0x00000109
offset:		0x0006
reserved:	0x0000
flags:		0x0010
receive:	0x0000
checksum:	0xF22B
pointer:	0x0000
options:	0x00000000

RECEIVED PAYLOAD PACKET:
source:		0x1388
dest:		0x1388
seq:		0x00000109
ack:		0x00000208
offset:		0x0006
reserved:	0x0000
flags:		0x0010
receive:	0x0000
checksum:	0xA3AC
pointer:	0x0000
options:	0x00000000

SENDING PAYLOAD ACK:
source:		0x1388
dest:		0x1388
seq:		0x00000189
ack:		0x0000010A
offset:		0x0006
reserved:	0x0000
flags:		0x0010
receive:	0x0000
checksum:	0xF2A9
pointer:	0x0000
options:	0x00000000

RECEIVED PAYLOAD PACKET:
source:		0x1388
dest:		0x1388
seq:		0x0000010A
ack:		0x00000209
offset:		0x0006
reserved:	0x0000
flags:		0x0010
receive:	0x0000
checksum:	0xA32C
pointer:	0x0000
options:	0x00000000

SENDING PAYLOAD ACK:
source:		0x1388
dest:		0x1388
seq:		0x0000018A
ack:		0x0000010B
offset:		0x0006
reserved:	0x0000
flags:		0x0010
receive:	0x0000
checksum:	0xF327
pointer:	0x0000
options:	0x00000000

RECEIVED PAYLOAD PACKET:
source:		0x1388
dest:		0x1388
seq:		0x0000010B
ack:		0x0000020A
offset:		0x0006
reserved:	0x0000
flags:		0x0010
receive:	0x0000
checksum:	0xA2AC
pointer:	0x0000
options:	0x00000000

SENDING PAYLOAD ACK:
source:		0x1388
dest:		0x1388
seq:		0x0000018B
ack:		0x0000010C
offset:		0x0006
reserved:	0x0000
flags:		0x0010
receive:	0x0000
checksum:	0xF3A5
pointer:	0x0000
options:	0x00000000


----------------------------

Closing connection:

RECEIVED FIN:
source:		0x1388
dest:		0x1388
seq:		0x000000C8
ack:		0x00000000
offset:		0x0006
reserved:	0x0000
flags:		0x0001
receive:	0x0000
checksum:	0xE07B
pointer:	0x0000
options:	0x00000000

SENDING FIN-ACK:
source:		0x1388
dest:		0x1388
seq:		0x000000DC
ack:		0x000000C9
offset:		0x0006
reserved:	0x0000
flags:		0x0010
receive:	0x0000
checksum:	0xB6C8
pointer:	0x0000
options:	0x00000000

SENDING FIN:
source:		0x1388
dest:		0x1388
seq:		0x000000DC
ack:		0x000000C9
offset:		0x0006
reserved:	0x0000
flags:		0x0001
receive:	0x0000
checksum:	0x1C7C
pointer:	0x0000
options:	0x00000000

RECEIVED FIN-ACK:
source:		0x1388
dest:		0x1388
seq:		0x000000C9
ack:		0x000000DD
offset:		0x0006
reserved:	0x0000
flags:		0x0010
receive:	0x0000
checksum:	0x7AC7
pointer:	0x0000
options:	0x00000000

